<svg width="86" height="86" viewBox="0 0 86 86" fill="none" xmlns="http://www.w3.org/2000/svg">
              <mask id="mask0" mask-type="alpha" maskUnits="userSpaceOnUse" x="0" y="0" width="86" height="50">
              <path fill-rule="evenodd" clip-rule="evenodd" d="M0 0H86V49.9999H0V0Z" fill="white"/>
              </mask>
              <g mask="url(#mask0)">
              <path fill-rule="evenodd" clip-rule="evenodd" d="M83.1333 45.7143C83.1333 46.5032 82.4916 47.1429 81.7 47.1429H4.3C3.50844 47.1429 2.86667 46.5032 2.86667 45.7143V42.8571C2.86667 42.0682 3.50844 41.4286 4.3 41.4286H81.7C82.4916 41.4286 83.1333 42.0682 83.1333 42.8571V45.7143ZM30.1 6.70143V31.4286C30.1 32.2175 30.7418 32.8571 31.5333 32.8571C32.3249 32.8571 32.9667 32.2175 32.9667 31.4286V4.28571C32.9667 3.49696 33.6084 2.85714 34.4 2.85714H41.5667V34.2857C41.5667 35.0746 42.2084 35.7143 43 35.7143C43.7916 35.7143 44.4333 35.0746 44.4333 34.2857V2.85714H51.6C52.3916 2.85714 53.0333 3.49696 53.0333 4.28571V31.4286C53.0333 32.2175 53.6751 32.8571 54.4667 32.8571C55.2582 32.8571 55.9 32.2175 55.9 31.4286V6.70143C69.2429 11.7975 78.2455 24.3396 78.776 38.5714H7.224C7.75451 24.3396 16.7571 11.7975 30.1 6.70143ZM81.7 38.5714H81.6427C81.0991 22.7338 70.847 8.85643 55.8341 3.63714C55.5137 1.55125 53.7174 0.00803571 51.6 0H34.4C32.2826 0.00803571 30.4863 1.55125 30.1659 3.63714C15.153 8.85643 4.90092 22.7338 4.35733 38.5714H4.3C1.92515 38.5714 0 40.4902 0 42.8571V45.7143C0 48.0813 1.92515 50 4.3 50H81.7C84.0749 50 86 48.0813 86 45.7143V42.8571C86 40.4902 84.0749 38.5714 81.7 38.5714Z" fill="#172B4D"/>
              </g>
              <path fill-rule="evenodd" clip-rule="evenodd" d="M35.5882 63H17.2353C14.8962 63 13 64.8468 13 67.125V72.625C13 73.3843 13.6321 74 14.4118 74C15.1914 74 15.8235 73.3843 15.8235 72.625V67.125C15.8235 66.3657 16.4556 65.75 17.2353 65.75H35.5882C36.3679 65.75 37 65.1343 37 64.375C37 63.6157 36.3679 63 35.5882 63Z" fill="#172B4D"/>
              <mask id="mask1" mask-type="alpha" maskUnits="userSpaceOnUse" x="0" y="0" width="86" height="86">
              <path fill-rule="evenodd" clip-rule="evenodd" d="M0 86H86V0H0V86Z" fill="white"/>
              </mask>
              <g mask="url(#mask1)">
              <path fill-rule="evenodd" clip-rule="evenodd" d="M78.8333 67.15H83.1333V65.7H78.8333V67.15ZM78.8333 74.4H83.1333V70.05H78.8333V74.4ZM75.9667 75.85C75.962 79.852 72.756 83.0953 68.8 83.1H60.2C54.6489 83.0835 49.5104 80.1318 46.6521 75.3179C45.4315 73.2757 42.8054 72.6214 40.7869 73.8563C40.1955 74.218 39.6997 74.7195 39.3421 75.3179C36.485 80.13 31.349 83.0815 25.8 83.1H17.2C13.244 83.0953 10.038 79.852 10.0333 75.85V64.25C10.0333 61.8475 11.9585 59.9 14.3333 59.9H71.6667C74.0415 59.9 75.9667 61.8475 75.9667 64.25V75.85ZM2.86667 68.6H7.16667V67.15H2.86667V68.6ZM2.86667 75.85H7.16667V71.5H2.86667V75.85ZM84.5667 62.8H78.69C78.0043 59.4268 75.071 57.0044 71.6667 57H14.3333C10.3773 57.0047 7.17132 60.248 7.16667 64.25H1.43333C0.641775 64.25 0 64.8992 0 65.7V77.3C0 78.1008 0.641775 78.75 1.43333 78.75H7.59667C8.86678 83.0447 12.7687 85.9904 17.2 86H25.8C32.3589 85.9811 38.4304 82.4937 41.8075 76.8055C42.2188 76.1393 43.0864 75.9366 43.745 76.3528C43.9263 76.4673 44.0793 76.6221 44.1925 76.8055C47.5696 82.4937 53.6411 85.9811 60.2 86H68.8C73.783 85.994 78.0068 82.2893 78.7187 77.3H84.5667C85.3582 77.3 86 76.6508 86 75.85V64.25C86 63.4492 85.3582 62.8 84.5667 62.8Z" fill="#172B4D"/>
              <path fill-rule="evenodd" clip-rule="evenodd" d="M44.5 63H41.5C40.6716 63 40 63.6716 40 64.5C40 65.3284 40.6716 66 41.5 66H44.5C45.3284 66 46 65.3284 46 64.5C46 63.6716 45.3284 63 44.5 63Z" fill="#172B4D"/>
              </g>
              </svg>